<?xml version="1.0" encoding="utf-8"?>
<!-- Generator: Adobe Illustrator 19.2.0, SVG Export Plug-In . SVG Version: 6.00 Build 0)  -->
<svg version="1.1" id="Layer_1" xmlns="http://www.w3.org/2000/svg" xmlns:xlink="http://www.w3.org/1999/xlink" x="0px" y="0px"
	 viewBox="0 0 16 16" style="enable-background:new 0 0 16 16;" xml:space="preserve">
<style type="text/css">
	.st0{clip-path:url(#SVGID_2_);fill:#00A66D;}
</style>
<g>
	<defs>
		<rect id="SVGID_1_" width="16" height="16"/>
	</defs>
	<clipPath id="SVGID_2_">
		<use xlink:href="#SVGID_1_"  style="overflow:visible;"/>
	</clipPath>
	<path class="st0" d="M11.5,8.3H9.2c0,3.6,0,8,0,8H5.9c0,0,0-4.4,0-8H4.3V5.4h1.6V3.6c0-1.3,0.6-3.4,3.4-3.4l2.5,0V3
		c0,0-1.5,0-1.8,0C9.7,3,9.2,3.2,9.2,3.8v1.7h2.5L11.5,8.3z"/>
</g>
</svg>
