<?xml version="1.0" encoding="utf-8"?>
<!-- Generator: Adobe Illustrator 19.2.0, SVG Export Plug-In . SVG Version: 6.00 Build 0)  -->
<svg version="1.1" id="Layer_1" xmlns="http://www.w3.org/2000/svg" xmlns:xlink="http://www.w3.org/1999/xlink" x="0px" y="0px"
	 viewBox="0 0 40 40" style="enable-background:new 0 0 40 40;" xml:space="preserve">
<style type="text/css">
	.st0{fill:#4B5155;}
</style>
<g>
	<path class="st0" d="M11.2,26.8h17.6v-2H11.2V26.8z M11.2,21h17.6v-2H11.2V21z M11.2,13.2v2h17.6v-2H11.2z"/>
</g>
<g>
	<path class="st0" d="M20,39.5C9.2,39.5,0.5,30.8,0.5,20S9.2,0.5,20,0.5S39.5,9.2,39.5,20S30.8,39.5,20,39.5z M20,1.4
		C9.8,1.4,1.4,9.8,1.4,20S9.8,38.6,20,38.6S38.6,30.3,38.6,20S30.2,1.4,20,1.4z"/>
</g>
</svg>
