<?xml version="1.0" encoding="utf-8"?>
<!-- Generator: Adobe Illustrator 19.2.0, SVG Export Plug-In . SVG Version: 6.00 Build 0)  -->
<svg version="1.1" id="Layer_1" xmlns="http://www.w3.org/2000/svg" xmlns:xlink="http://www.w3.org/1999/xlink" x="0px" y="0px"
	 viewBox="0 0 84 84" style="enable-background:new 0 0 84 84;" xml:space="preserve">
<style type="text/css">
	.st0{fill:none;stroke:#00B96D;stroke-width:5;stroke-miterlimit:10;}
	.st1{fill:#00B96D;}
</style>
<polyline class="st0" points="74.3,10.5 46,18.8 66.3,58.3 34,53.8 9.7,75.7 "/>
<circle class="st1" cx="73.9" cy="10" r="8"/>
<circle class="st1" cx="45.5" cy="19" r="8"/>
<circle class="st1" cx="66.1" cy="58.9" r="8"/>
<circle class="st1" cx="34.1" cy="54.9" r="8"/>
<circle class="st1" cx="10" cy="74.6" r="8"/>
</svg>
