<?xml version="1.0" encoding="utf-8"?>
<!-- Generator: Adobe Illustrator 19.2.0, SVG Export Plug-In . SVG Version: 6.00 Build 0)  -->
<svg version="1.1" id="Layer_1" xmlns="http://www.w3.org/2000/svg" xmlns:xlink="http://www.w3.org/1999/xlink" x="0px" y="0px"
	 viewBox="0 0 84 84" style="enable-background:new 0 0 84 84;" xml:space="preserve">
<style type="text/css">
	.st0{fill:#00B96D;}
</style>
<g>
	<g>
		<g>
			<path class="st0" d="M76.3,51.8v15L57.6,74v-9.7l-5.7-7.6v17.7l-20-7.5V15.2l3.2,1.2l1-5.8l-6.3-2.4l-1.3-0.3l-1.3,0.5L3.9,18.3
				L2,19.1v2.2V78v5.1L6.6,81l22.1-9.4l25.4,9.6l1.3,0.5l1.3-0.5l23.4-10.1l1.9-0.8V68V41.7L76.3,51.8z M26.4,66.8L7.7,74V22.6
				l18.6-7.2V66.8z"/>
		</g>
		<g>
			<path class="st0" d="M61.6,55.2l-2.3-2.6c-0.7-0.7-16.2-18.5-16.2-34.1c0-4.7,1.9-9.2,5.5-12.5c3.5-3.3,8.1-5.1,13-5.1
				s9.5,1.8,13,5.1c3.5,3.3,5.5,7.8,5.5,12.5c0,15.5-15.5,33.3-16.2,34.1L61.6,55.2z M61.6,6.1c-7.1,0-13,5.4-13,12.1
				c0,5.7,2.6,12.9,7.6,20.9c1.9,3.1,3.9,5.8,5.4,7.7c4.3-5.6,13-18.1,13-28.6C74.6,11.5,68.7,6.1,61.6,6.1z"/>
		</g>
	</g>
</g>
</svg>
