<?xml version="1.0" encoding="utf-8"?>
<!-- Generator: Adobe Illustrator 19.2.0, SVG Export Plug-In . SVG Version: 6.00 Build 0)  -->
<svg version="1.1" id="logo" xmlns="http://www.w3.org/2000/svg" xmlns:xlink="http://www.w3.org/1999/xlink" x="0px" y="0px"
	 viewBox="0 0 205 45" style="enable-background:new 0 0 205 45;" xml:space="preserve">
<style type="text/css">
	.st0{fill:#1E262A;}
	.st1{fill:#00B06D;}
</style>
<g>
	<g>
		<g>
			<path class="st0" d="M197,36.2c-4.7,0-7.1-4.7-7.2-4.9l2.9-1.5c0,0,1.6,3.1,4.3,3.1c1.8,0,3.8-0.6,4.2-2.6
				c0.4-2.4-2.4-3.1-4.1-3.7c-2.6-0.9-5.9-2.1-5.9-5.5c0-3.3,2.5-5.7,6.2-5.7c3.9,0,6.1,2.8,6.2,2.9l-2.6,2
				c-0.1-0.1-1.4-1.7-3.7-1.7c-0.9,0-2.9,0.2-2.9,2.4c0,1,1.4,1.6,3.7,2.4c2.6,0.9,5.9,2.1,6.3,5.5c0.2,1.9-0.3,3.6-1.4,4.8
				C201.6,35.4,199.5,36.2,197,36.2z"/>
		</g>
		<path class="st0" d="M183.9,35.3h3.2l-9.7-20l-9.6,20h3.2l1.8-3.7h9.3L183.9,35.3z M174.1,28.8l3.3-6.8l3.3,6.8H174.1z"/>
		<polygon class="st0" points="147.2,16.1 133.2,16.1 133.2,19.1 138.5,19.1 138.5,35.3 141.9,35.3 141.9,19.1 147.2,19.1 		"/>
		<path class="st0" d="M128.1,35.3h3.2l-9.7-20l-9.6,20h3.2l1.8-3.7h9.3L128.1,35.3z M118.4,28.8l3.3-6.8l3.3,6.8H118.4z"/>
		<polygon class="st0" points="156.6,32.3 156.6,16.1 153.2,16.1 153.2,32.3 153.2,35.3 156.6,35.3 164.3,35.3 164.3,32.3 		"/>
		<polygon class="st0" points="63.5,16.1 60.6,16.1 60.6,29.3 46.8,15.2 46.8,35.3 49.7,35.3 49.7,21.8 63.5,36.2 		"/>
		<path class="st0" d="M71.9,16.1h12.3V19h-9.4v4.8h8.8v2.9h-8.8v5.8h9.4v2.9H71.9V16.1z"/>
		<g>
			<path class="st0" d="M89.6,16.1h3.8l4.3,6.7l1.6,2.5l-1.6,2.5l-4.9,7.5h-3.7l6.6-10L89.6,16.1z"/>
			<polygon class="st0" points="102.3,25.3 108.4,16.1 104.6,16.1 100.3,22.8 100.3,22.8 101.9,25.3 100.3,27.8 100.3,27.8 
				105.2,35.3 108.9,35.3 			"/>
		</g>
	</g>
	<path class="st1" d="M34.3,40.8l-6.5-13.5l1.8-3c0.2-0.3,0.2-0.6,0-0.8c-0.1-0.3-0.4-0.4-0.7-0.4L25.6,23L20,11.3l2.5-3.1
		c0.2-0.3,0.3-0.7,0-1l-3.3-4.3c-0.2-0.2-0.4-0.3-0.7-0.3l0,0c-0.3,0-0.5,0.1-0.7,0.3l-3.4,4.2c-0.2,0.3-0.3,0.7,0,1l2.4,3.1
		l-12,25.1c-0.2,0-0.4-0.1-0.7-0.1c-2.1,0-3.7,1.7-3.7,3.7c0,2.1,1.7,3.7,3.7,3.7c2.1,0,3.7-1.7,3.7-3.7c0-0.3,0-0.5-0.1-0.7
		l15.1-10.4L24,31c0.1,0.2,0.4,0.4,0.7,0.4c0,0,0,0,0.1,0c0.3,0,0.6-0.1,0.7-0.4l0.9-1.6l5.9,12.2L34.3,40.8z M18.6,4.6l2.3,2.9
		l-2.3,2.9l-2.3-2.9L18.6,4.6z M4.2,42c-1.2,0-2.1-0.9-2.1-2s0.9-2.1,2.1-2.1c1.1,0,2.1,0.9,2.1,2.1C6.2,41.1,5.3,42,4.2,42z
		 M6.8,37.2L18.5,13l4.7,9.8h-2.3c-0.3,0-0.6,0.1-0.7,0.4c-0.2,0.3-0.2,0.6,0,0.8l1.6,2.9L6.8,37.2z M24.9,29.1l-2.7-4.8l5.5,0.1
		L24.9,29.1z"/>
</g>
</svg>
